SF City Employee Compensation Part 3
…
Part 1: Modeling Data cont.

To be able to make the model to find if there is a correlation between compensation and the organization and their employement, we need to make a table that has the averages of pay and the number of employees for each organization by each year.

NOTE*: there are negative numbers that we will exlude when finding the averages of our financial columns.

Organizations_info <- Employee_Compensation %>%  group_by(`Organization Group`,`Year`) %>% filter(`Salaries` > 0 & `Overtime`>=0 & `Other Salaries`>=0 & `Total Salary`>0 & `Retirement` >= 0 & `Health and Dental` >= 0& `Other Benefits`>=0 & `Total Benefits`>0 & `Total Compensation` > 0 & Year <= 2019) %>% summarize(Employee_total = n_distinct(`Employee Identifier`, na.rm=T), Salaries_ave = mean(`Salaries`), Overtime_ave = mean(`Overtime`), Other_Salaries_ave = mean(`Other Salaries`),Total_Salary_ave = mean(`Total Salary`), Retirement_ave = mean(`Retirement`), Health_ave = mean(`Health and Dental`), Other_Benefits_ave = mean(`Other Benefits`), Total_Benefits_ave = mean(`Total Benefits`), Total_Compensation_ave = mean(`Total Compensation`))

#View(Organizations_info)
Organizations_info

## # A tibble: 49 x 12
## # Groups:   Organization Group [7]
##    `Organization G~  Year Employee_total Salaries_ave Overtime_ave
##    <fct>            <dbl>          <int>        <dbl>        <dbl>
##  1 Community Health  2013           8424       63704.        1469.
##  2 Community Health  2014           8206       63698.        1453.
##  3 Community Health  2015           8614       65951.        1582.
##  4 Community Health  2016           8999       68804.        1775.
##  5 Community Health  2017           8813       57454.        1610.
##  6 Community Health  2018           7183       71386.        3208.
##  7 Community Health  2019           5054       77046.        4131.
##  8 Culture & Recre~  2013           3427       32839.         838.
##  9 Culture & Recre~  2014           3532       31724.         909.
## 10 Culture & Recre~  2015           3742       32721.        1019.
## # ... with 39 more rows, and 7 more variables: Other_Salaries_ave <dbl>,
## #   Total_Salary_ave <dbl>, Retirement_ave <dbl>, Health_ave <dbl>,
## #   Other_Benefits_ave <dbl>, Total_Benefits_ave <dbl>,
## #   Total_Compensation_ave <dbl>
…
