SF City Employee Compensation
…
#eliminates Job code from the title
job_title_e <- job_title_e%>% 
              str_replace("(^([0-9]|[A-Z]){4} - )|(^([0-9]|[A-Z]){4} )", "")%>%
              str_trim(side = c("right"))

#table of even rows
Job_listing_e <- tibble(Code=job_code_e, Title=job_title_e, Department=job_dept_e, Salary=job_sal_e)

#merge the two tables together
Job_listing <- bind_rows(Job_listing_o,Job_listing_e)

Job_listing

## # A tibble: 162 x 4
##    Code  Title                    Department       Salary                  
##    <chr> <chr>                    <chr>            <chr>                   
##  1 0923  Manager II  - Benefits ~ "Human Services~ "$55.40 - $70.70/hour; ~
##  2 0923  Manager II - In Home Su~ "Human Services~ "$55.40 - $70.70/hour; ~
##  3 0931  Manager III - Health Se~ "Human Services~ "$59.71 - $76.23/hour; ~
##  4 0932  Manager IV, Deputy Bure~ "San Francisco ~ "$64.13 - $81.84/hour; ~
##  5 0942  Manager VII, Bureau Man~ "San Francisco ~ "$79.53 - $101.49/hour;~
##  6 104X  Networks Engineer (All ~ "Citywide "      "$91,364.00 - $151,710.~
##  7 104X  Systems Engineer (All L~ "Citywide "      "$91,364.00 - $151,710.~
##  8 1070  Network Supervisor       "Public Health " "$63.36 - $79.70/hour; ~
##  9 1652  Accountant II            "Controller "    "$37.15 - $45.13/hour; ~
## 10 1822  Administrative Analyst   "Assessor-Recor~ "$40.06 - $48.70/hour; ~
## # ... with 152 more rows
…
salary_index6 <- Job_listing$Salary %>% 
              str_which("bi-weekly")
Job_listing$Salary[salary_index6] <- Job_listing$Salary[salary_index6] %>% 
              str_replace(", \\$4,631-6,063\\/bi-weekly,","; ;") %>%
              str_replace(" until 12/28/2019 ","")

salary_index7 <- Job_listing$Salary %>% 
              str_which("based on")
Job_listing$Salary[salary_index7] <- Job_listing$Salary[salary_index7] %>% 
              str_replace(" \\(up to \\$276,484\\.00, based on experience\\/qualifications\\)","")

Job_listing

## # A tibble: 162 x 4
##    Code  Title                    Department       Salary                  
##    <chr> <chr>                    <chr>            <chr>                   
##  1 0923  Manager II  - Benefits ~ "Human Services~ "$55.40 - $70.70/hour; ~
##  2 0923  Manager II - In Home Su~ "Human Services~ "$55.40 - $70.70/hour; ~
##  3 0931  Manager III - Health Se~ "Human Services~ "$59.71 - $76.23/hour; ~
##  4 0932  Manager IV, Deputy Bure~ "San Francisco ~ "$64.13 - $81.84/hour; ~
##  5 0942  Manager VII, Bureau Man~ "San Francisco ~ "$79.53 - $101.49/hour;~
##  6 104X  Networks Engineer (All ~ "Citywide "      "$91,364.00 - $151,710.~
##  7 104X  Systems Engineer (All L~ "Citywide "      "$91,364.00 - $151,710.~
##  8 1070  Network Supervisor       "Public Health " "$63.36 - $79.70/hour; ~
##  9 1652  Accountant II            "Controller "    "$37.15 - $45.13/hour; ~
## 10 1822  Administrative Analyst   "Assessor-Recor~ "$40.06 - $48.70/hour; ~
## # ... with 152 more rows
…
Job_listing <- Job_listing %>% separate(Mo_Salary, into = c("Mo_Salary_Min","Mo_Salary_Max"), sep="-")

## Warning: Expected 2 pieces. Missing pieces filled with `NA` in 50 rows
## [6, 7, 25, 27, 30, 34, 35, 48, 49, 53, 57, 58, 59, 62, 63, 64, 65, 68, 70,
## 71, ...].

Job_listing <- Job_listing %>% separate(Yr_Salary, into = c("Yr_Salary_Min","Yr_Salary_Max"), sep="-")

## Warning: Expected 2 pieces. Missing pieces filled with `NA` in 24 rows [34,
## 48, 49, 53, 57, 58, 59, 63, 68, 70, 71, 73, 128, 129, 130, 132, 138, 140,
## 142, 145, ...].

Job_listing

## # A tibble: 162 x 9
##    Code  Title Department Hr_Salary_Min Hr_Salary_Max Mo_Salary_Min
##    <chr> <chr> <chr>      <chr>         <chr>         <chr>        
##  1 0923  Mana~ "Human Se~ "$55.40 "     " $70.70/hou~ " $9,603.00 "
##  2 0923  Mana~ "Human Se~ "$55.40 "     " $70.70/hou~ " $9,603.00 "
##  3 0931  Mana~ "Human Se~ "$59.71 "     " $76.23/hou~ " $10,350.00~
##  4 0932  Mana~ "San Fran~ "$64.13 "     " $81.84/hou~ " $11,115.00~
##  5 0942  Mana~ "San Fran~ "$79.53 "     " $101.49/ho~ " $13,784.00~
##  6 104X  Netw~ "Citywide~ ""            <NA>          ""           
##  7 104X  Syst~ "Citywide~ ""            <NA>          ""           
##  8 1070  Netw~ "Public H~ "$63.36 "     " $79.70/hou~ " $10,983.00~
##  9 1652  Acco~ "Controll~ "$37.15 "     " $45.13/hou~ " $6,439.00 "
## 10 1822  Admi~ "Assessor~ "$40.06 "     " $48.70/hou~ " $6,944.00 "
## # ... with 152 more rows, and 3 more variables: Mo_Salary_Max <chr>,
## #   Yr_Salary_Min <chr>, Yr_Salary_Max <chr>
…
## Warning: NAs introduced by coercion

Job_listing$Hr_Salary_Max = as.numeric(as.character(Job_listing$Hr_Salary_Max))

## Warning: NAs introduced by coercion

Job_listing$Mo_Salary_Min = as.numeric(as.character(Job_listing$Mo_Salary_Min))
Job_listing$Mo_Salary_Max = as.numeric(as.character(Job_listing$Mo_Salary_Max))
Job_listing$Yr_Salary_Min = as.numeric(as.character(Job_listing$Yr_Salary_Min))
Job_listing$Yr_Salary_Max = as.numeric(as.character(Job_listing$Yr_Salary_Max))

#View(Job_listing)
Job_listing

## # A tibble: 162 x 9
##    Code  Title Department Hr_Salary_Min Hr_Salary_Max Mo_Salary_Min
##    <chr> <chr> <chr>              <dbl>         <dbl>         <dbl>
##  1 0923  Mana~ "Human Se~          55.4          70.7          9603
##  2 0923  Mana~ "Human Se~          55.4          70.7          9603
##  3 0931  Mana~ "Human Se~          59.7          76.2         10350
##  4 0932  Mana~ "San Fran~          64.1          81.8         11115
##  5 0942  Mana~ "San Fran~          79.5         101.          13784
##  6 104X  Netw~ "Citywide~          NA            NA              NA
##  7 104X  Syst~ "Citywide~          NA            NA              NA
##  8 1070  Netw~ "Public H~          63.4          79.7         10983
##  9 1652  Acco~ "Controll~          37.2          45.1          6439
## 10 1822  Admi~ "Assessor~          40.1          48.7          6944
## # ... with 152 more rows, and 3 more variables: Mo_Salary_Max <dbl>,
## #   Yr_Salary_Min <dbl>, Yr_Salary_Max <dbl>
…
